HUD frame time nsec:,16666000

Range Index,Elapsed Time, First Event,Last Event
0,77952,4,4
1,627168,16,16
2,1280,34,34
3,1280,51,51
4,1280,68,68
5,1312,85,85
6,1280,102,102
7,1280,119,119
8,1280,136,136
9,1280,153,153
10,1280,170,170
11,1280,187,187
12,1248,204,204
13,1280,221,221
14,1280,238,238
15,1248,255,255
16,1280,272,272
17,1312,289,289
18,1312,306,306
19,1280,323,323
20,1280,340,340
21,1280,357,357
22,1312,374,374
23,60832,391,391
24,1280,408,408
25,1280,425,425
26,1248,442,442
27,1280,459,459
28,49440,476,476
29,1472,493,493
30,1248,510,510
31,920512,527,527
32,1280,544,544
33,1440,561,561
34,1280,578,578
35,1440,595,595
36,1280,612,612
37,1472,629,629
38,1280,646,646
39,1280,663,663
40,1280,680,680
41,1280,697,697
42,1280,714,714
43,1280,731,731
44,1280,748,748
45,1280,765,765
46,1280,782,782
47,1280,799,799
48,1248,816,816
49,1280,833,833
50,1280,850,850
51,32800,867,867
52,1280,884,884
53,1280,901,901
54,1280,918,918
55,1280,935,935
56,1280,952,952
57,1248,969,969
58,1280,986,986
59,1280,1003,1003
60,1280,1020,1020
61,1280,1037,1037
62,287648,1069,1069
63,10534944,1070,1070
