HUD frame time nsec:,16670000

Range Index,Elapsed Time, First Event,Last Event
0,89984,5,5
1,1299232,15,15
2,181120,35,35
3,578304,54,54
4,1344,73,73
5,7040,92,92
6,1344,111,111
7,1344,130,130
8,1344,149,149
9,1344,168,168
10,1344,187,187
11,99744,189,189
12,749440,225,225
13,15904,266,266
14,1344,270,270
15,10045632,288,288
