HUD frame time nsec:,16669000

Range Index,Elapsed Time, First Event,Last Event
0,78016,4,4
1,1280,25,25
2,1280,42,42
3,1280,59,59
4,1280,76,76
5,1280,93,93
6,1280,110,110
7,1280,127,127
8,1280,144,144
9,1280,161,161
10,1280,178,178
11,1280,195,195
12,1280,212,212
13,34112,229,229
14,1248,246,246
15,1280,263,263
16,1280,280,280
17,1280,297,297
18,1280,314,314
19,1280,331,331
20,1280,348,348
21,1280,365,365
22,110592,382,382
23,672,399,399
24,1280,416,416
25,1152,433,433
26,1280,450,450
27,56032,467,467
28,1280,484,484
29,1280,501,501
30,950144,518,518
31,1280,535,535
32,1280,552,552
33,1280,569,569
34,1312,586,586
35,1280,603,603
36,1280,620,620
37,182688,637,637
38,1280,654,654
39,1280,671,671
40,1280,688,688
41,1280,705,705
42,1248,722,722
43,1280,739,739
44,1280,756,756
45,1280,773,773
46,1280,790,790
47,1280,807,807
48,1248,824,824
49,1280,841,841
50,1248,858,858
51,8608,875,875
52,1248,892,892
53,6176,909,909
54,7264,926,926
55,14016,943,943
56,5472,960,960
57,1312,977,977
58,68736,994,994
59,39424,1011,1011
60,1408,1028,1028
61,252832,1060,1060
62,9913184,1061,1061
